filename,width,height,class,xmin,ymin,xmax,ymax
20200131_154850.jpg,756,1008,tlight,285,78,310,107
20200227_192030_033.jpg,567,1008,tlight,97,237,128,267
20200227_192030_034.jpg,567,1008,tlight,98,237,129,269
20200227_192030_035.jpg,567,1008,tlight,94,227,126,259
20200227_192030_036.jpg,567,1008,tlight,92,228,125,259
20200227_192053_014.jpg,648,1152,tlight,342,460,353,474
20200227_192059_003.jpg,567,1008,tlight,321,227,340,248
20200227_192059_005.jpg,567,1008,tlight,306,229,323,251
20200227_192059_006.jpg,567,1008,tlight,303,230,323,251
20200227_192059_007.jpg,567,1008,tlight,303,231,322,251
20200227_192059_008.jpg,567,1008,tlight,304,231,322,252
20200227_192059_009.jpg,567,1008,tlight,304,229,323,250
20200227_192059_010.jpg,567,1008,tlight,305,228,323,250
20200227_192059_011.jpg,567,1008,tlight,304,227,323,249
20200227_192059_012.jpg,567,1008,tlight,303,222,324,245
20200227_192059_015.jpg,567,1008,tlight,336,216,357,238
20200227_192059_016.jpg,567,1008,tlight,338,216,358,239
20200227_192059_018.jpg,567,1008,tlight,349,220,369,242
20200227_192059_019.jpg,567,1008,tlight,350,229,372,252
20200227_192059_020.jpg,567,1008,tlight,349,230,371,253
20200227_192059_021.jpg,567,1008,tlight,351,234,372,256
20200227_192059_022.jpg,567,1008,tlight,351,239,373,261
20200227_192059_023.jpg,567,1008,tlight,354,244,374,266
20200227_192059_024.jpg,567,1008,tlight,354,246,375,268
20200227_192107_001.jpg,567,1008,tlight,125,244,144,268
20200227_192107_003.jpg,567,1008,tlight,126,247,146,269
20200227_192107_004.jpg,567,1008,tlight,126,248,147,270
20200227_192112_006.jpg,567,1008,tlight,224,226,247,252
20200227_192115_001.jpg,567,1008,tlight,225,107,289,169
20200227_192115_003.jpg,567,1008,tlight,207,105,272,172
20200227_192115_004.jpg,567,1008,tlight,201,104,269,173
20200227_192115_005.jpg,567,1008,tlight,209,157,274,221
20200227_192115_006.jpg,567,1008,tlight,216,160,274,225
20200227_192115_008.jpg,567,1008,tlight,193,127,259,196
20200227_192115_009.jpg,567,1008,tlight,199,129,266,196
20200227_192115_010.jpg,567,1008,tlight,200,131,267,199
20200227_192117_003.jpg,567,1008,tlight,293,248,341,300
20200227_192117_005.jpg,567,1008,tlight,312,235,363,291
20200227_192117_006.jpg,567,1008,tlight,321,235,366,290
20200227_192117_007.jpg,567,1008,tlight,318,233,364,287
20200227_192117_008.jpg,567,1008,tlight,319,229,364,287
20200227_192117_009.jpg,567,1008,tlight,306,235,357,292
20200303_131501.jpg,648,1152,tlight,260,444,275,460
20200303_131504.jpg,567,1008,tlight,193,144,234,188
20200303_131506.jpg,567,1008,tlight,236,303,255,327
20200303_131515.jpg,567,1008,tlight,194,153,228,189
20200303_131516.jpg,567,1008,tlight,117,145,153,185
20200303_131517.jpg,567,1008,tlight,434,160,457,185
20200303_131518_001.jpg,567,1008,tlight,407,153,430,179
20200303_131540(0).jpg,567,1008,tlight,246,270,272,298
20200303_131541(0).jpg,567,1008,tlight,228,268,252,296
20200303_131541.jpg,567,1008,tlight,235,270,261,296
20200303_131544.jpg,567,1008,tlight,193,258,218,286
20200303_131545.jpg,567,1008,tlight,190,257,214,284
20200303_131547(0).jpg,567,1008,tlight,102,217,126,247
20200303_131547.jpg,567,1008,tlight,147,222,171,250
20200303_131548.jpg,567,1008,tlight,49,209,73,241
20200303_131549.jpg,567,1008,tlight,54,201,78,230
20200303_131550(0).jpg,567,1008,tlight,133,223,155,253
20200303_131553_003.jpg,567,1008,tlight,257,173,282,203
20200303_131553_037.jpg,567,1008,tlight,279,201,304,228
20200303_131553_038.jpg,567,1008,tlight,291,200,316,230
20200303_131553_039.jpg,567,1008,tlight,303,202,329,231
20200303_131553_040.jpg,567,1008,tlight,306,202,331,233
20200303_131553_041.jpg,567,1008,tlight,310,203,336,234
20200303_131553_042.jpg,567,1008,tlight,311,204,337,233
20200303_131553_044.jpg,567,1008,tlight,319,202,345,233
20200303_131604_001.jpg,567,1008,tlight,304,243,324,269
20200303_131604_002.jpg,567,1008,tlight,318,240,338,270
20200303_131604_005.jpg,567,1008,tlight,347,259,366,288
20200303_131604_006.jpg,567,1008,tlight,348,259,368,288
20200303_131604_020.jpg,567,1008,tlight,361,271,382,299
20200303_131604_022.jpg,567,1008,tlight,360,275,380,300
20200303_131604_024.jpg,567,1008,tlight,355,276,374,303
20200303_132504_008.jpg,567,1008,tlight,313,96,343,133
20200303_132504_021.jpg,567,1008,tlight,272,110,303,154
20200303_132504_023.jpg,567,1008,tlight,276,113,305,154
20200303_132504_024.jpg,567,1008,tlight,276,115,305,153
20200303_132507(0).jpg,567,1008,tlight,292,301,331,350
20200303_132510.jpg,648,1152,tlight,406,280,450,343
20200303_132531.jpg,648,1152,tlight,285,329,348,421
20200303_132534(0).jpg,648,1152,tlight,323,395,342,423
20200303_132536.jpg,648,1152,tlight,308,341,330,369
20200303_132544.jpg,567,1008,tlight,185,94,222,145
20200303_132545(0).jpg,567,1008,tlight,203,119,242,168
20200303_132545.jpg,567,1008,tlight,205,130,242,177
20200303_132551.jpg,567,1008,tlight,75,305,128,370
20200303_132555.jpg,567,1008,tlight,28,272,79,326
20200303_133639(0).jpg,567,1008,tlight,207,7,242,59
20200303_133639.jpg,567,1008,tlight,269,68,300,112
IMG_0231.JPG,612,816,tlight,166,328,194,354
IMG_0233.JPG,612,816,tlight,292,431,318,454
IMG_0271.JPG,612,816,tlight,392,384,411,402
IMG_0272.JPG,612,816,tlight,529,351,548,370
IMG_0273.JPG,612,816,tlight,394,286,411,303
IMG_0274.JPG,612,816,tlight,470,299,488,317
IMG_0275.JPG,612,816,tlight,211,202,245,237
IMG_0276.JPG,612,816,tlight,434,263,463,296
IMG_0279.JPG,612,816,tlight,498,276,523,298
IMG_0280.JPG,612,816,tlight,477,334,496,355
IMG_0281.JPG,612,816,tlight,477,334,498,355
IMG_0282.JPG,612,816,tlight,500,343,520,362
IMG_0283.JPG,612,816,tlight,505,307,525,329
IMG_0284.JPG,612,816,tlight,158,360,184,384
IMG_0285.JPG,612,816,tlight,156,359,181,384
IMG_0286.JPG,612,816,tlight,429,279,455,306
IMG_0287.JPG,612,816,tlight,428,373,457,399
IMG_0288.JPG,612,816,tlight,430,372,459,400
IMG_0289.JPG,612,816,tlight,398,358,425,387
IMG_0290.JPG,612,816,tlight,398,357,427,385
IMG_0291.JPG,612,816,tlight,360,311,374,326
IMG_0292.JPG,612,816,tlight,361,311,375,324
IMG_0293.JPG,612,816,tlight,405,250,425,270
IMG_0294.JPG,612,816,tlight,400,250,422,269
IMG_0297.JPG,612,816,tlight,218,288,238,308
IMG_0299.JPG,612,816,tlight,229,289,250,312
IMG_0300.JPG,612,816,tlight,232,290,253,310
IMG_0301.JPG,612,816,tlight,464,359,488,384
IMG_0302.JPG,612,816,tlight,525,302,552,329
IMG_0303.JPG,612,816,tlight,420,289,437,305
IMG_0304.JPG,612,816,tlight,228,240,260,273
IMG_0305.JPG,612,816,tlight,190,209,231,251
IMG_0308.JPG,612,816,tlight,263,200,291,229
IMG_0310.JPG,612,816,tlight,286,277,318,310
IMG_0313.JPG,612,816,tlight,374,197,403,228
IMG_0338.JPG,612,816,tlight,530,299,560,328
IMG_0343.JPG,612,816,tlight,282,244,512,446
IMG_0344.JPG,612,816,tlight,256,249,468,435
IMG_0345.JPG,612,816,tlight,139,248,354,451
IMG_0346.JPG,612,816,tlight,112,261,322,458
IMG_1941.JPG,756,1008,tlight,264,426,287,451
IMG_1942.JPG,756,1008,tlight,183,396,213,426
IMG_1943.JPG,756,1008,tlight,217,325,244,354
IMG_1944.JPG,756,1008,tlight,462,460,471,471
IMG_1945.JPG,756,1008,tlight,315,402,327,414
IMG_1946.JPG,756,1008,tlight,325,392,337,405
IMG_1948.JPG,756,1008,tlight,149,352,177,383
IMG_1948.JPG,756,1008,tlight,452,397,462,410
IMG_1949.JPG,756,1008,tlight,155,353,184,385
IMG_1950.JPG,756,1008,tlight,172,347,202,379
IMG_1951.JPG,756,1008,tlight,202,432,223,454
IMG_1952.JPG,756,1008,tlight,381,358,402,381
IMG_3741.JPG,996,664,tlight,458,271,508,327
IMG_3742.JPG,996,664,tlight,267,221,317,279
IMG_3743.JPG,996,664,tlight,248,208,301,264
IMG_3744.JPG,996,664,tlight,369,263,394,289
IMG_3745.JPG,996,664,tlight,325,254,355,287
IMG_3746.JPG,996,664,tlight,466,338,486,359
IMG_3747.JPG,996,664,tlight,468,334,491,360
IMG_3748.JPG,996,664,tlight,424,254,449,279
IMG_3750.JPG,996,664,tlight,515,183,578,257
IMG_3750.JPG,996,664,tlight,519,386,549,420
IMG_3751.JPG,996,664,tlight,481,136,547,210
IMG_3751.JPG,996,664,tlight,521,340,553,374
IMG_3753.JPG,996,664,tlight,613,322,629,341
IMG_3753.JPG,996,664,tlight,190,204,232,248
IMG_3754.JPG,996,664,tlight,105,182,149,230
IMG_3754.JPG,996,664,tlight,867,298,887,320
IMG_3755.JPG,996,664,tlight,179,196,222,243
IMG_3756.JPG,996,664,tlight,99,145,139,191
IMG_3756.JPG,996,664,tlight,779,290,796,309
IMG_3757.JPG,996,664,tlight,557,325,586,357
IMG_3758.JPG,996,664,tlight,713,305,756,352
IMG_3760.JPG,996,664,tlight,375,250,416,294
IMG_3761.JPG,996,664,tlight,479,226,526,274
IMG_3762.JPG,996,664,tlight,347,305,397,365
IMG_3763.JPG,996,664,tlight,316,267,366,325
IMG_3764.JPG,996,664,tlight,251,222,304,281
IMG_3765.JPG,996,664,tlight,227,211,274,265
IMG_3766.JPG,996,664,tlight,296,290,318,312
IMG_3766.JPG,996,664,tlight,860,276,885,305
IMG_3767.JPG,996,664,tlight,824,360,854,393
IMG_3767.JPG,996,664,tlight,238,338,261,361
IMG_3768.JPG,996,664,tlight,811,273,846,314
IMG_3768.JPG,996,664,tlight,140,312,164,338
IMG_3769.JPG,996,664,tlight,694,284,713,308
IMG_3769.JPG,996,664,tlight,322,309,334,324
IMG_3771.JPG,996,664,tlight,722,273,740,295
IMG_3771.JPG,996,664,tlight,401,295,414,308
IMG_3772.JPG,996,664,tlight,534,348,548,364
IMG_3773.JPG,996,664,tlight,381,285,393,307
IMG_3774.JPG,996,664,tlight,374,315,397,337
IMG_3775.JPG,996,664,tlight,842,311,854,325
IMG_3775.JPG,996,664,tlight,424,292,459,331
IMG_3777.JPG,996,664,tlight,580,365,599,384
IMG_3781.JPG,996,664,tlight,556,284,579,308
IMG_3782.JPG,996,664,tlight,561,301,586,328
IMG_3783.JPG,996,664,tlight,605,248,629,274
IMG_3784.JPG,996,664,tlight,591,226,618,257
IMG_3785.JPG,996,664,tlight,544,356,556,368
IMG_3786.JPG,996,664,tlight,418,302,438,323
IMG_3787.JPG,996,664,tlight,299,258,337,298
IMG_3787.JPG,996,664,tlight,757,344,772,362
IMG_3788.JPG,996,664,tlight,524,355,565,401
IMG_3789.JPG,996,664,tlight,144,245,192,298
IMG_3789.JPG,996,664,tlight,701,332,719,354
IMG_3790.JPG,996,664,tlight,324,247,351,277
IMG_3791.JPG,996,664,tlight,528,332,548,356
IMG_3792.JPG,996,664,tlight,583,279,621,322
IMG_3793.JPG,996,664,tlight,152,257,177,286
IMG_3794.JPG,996,664,tlight,75,240,111,279
IMG_3795.JPG,996,664,tlight,235,289,252,308
IMG_3796.JPG,996,664,tlight,568,261,650,360
IMG_3797.JPG,996,664,tlight,501,260,638,413
IMG_3798.JPG,996,664,tlight,509,241,556,297
IMG_5753.JPG,756,1008,tlight,332,363,360,390
IMG_5755.JPG,756,1008,tlight,431,239,467,275
IMG_5756.JPG,756,1008,tlight,362,164,408,209
IMG_5757.JPG,756,1008,tlight,358,162,405,210
IMG_5758.JPG,756,1008,tlight,383,451,408,477
IMG_5759.JPG,756,1008,tlight,391,404,416,432
IMG_5761.JPG,756,1008,tlight,351,267,377,297
IMG_5762.JPG,756,1008,tlight,356,268,382,298
IMG_5763.JPG,756,1008,tlight,351,231,379,260
IMG_5764.JPG,756,1008,tlight,288,194,313,224
IMG_5766.JPG,756,1008,tlight,283,221,307,250
IMG_5767.JPG,756,1008,tlight,134,141,181,214
IMG_5768.JPG,756,1008,tlight,86,154,134,219
IMG_5769.JPG,756,1008,tlight,429,273,456,300
IMG_5770.JPG,756,1008,tlight,431,276,460,302
IMG_5771.JPG,756,1008,tlight,426,342,454,368
IMG_5772.JPG,756,1008,tlight,426,344,454,371
IMG_5773.JPG,756,1008,tlight,454,313,483,340
P1100596.JPG,1000,562,tlight,259,42,302,89
P1100597.JPG,1000,562,tlight,494,95,535,142
P1100600.JPG,1000,562,tlight,390,189,471,270
P1100602.JPG,1000,562,tlight,426,23,469,68
P1100606.JPG,1000,562,tlight,426,239,506,314
P1100607.JPG,1000,562,tlight,431,181,505,262
P1100608.JPG,1000,562,tlight,432,197,513,282
P1100609.JPG,1000,562,tlight,443,9,525,91
P1100610.JPG,1000,562,tlight,448,139,518,220
P1100611.JPG,1000,562,tlight,599,199,676,278
P1100612.JPG,1000,562,tlight,260,50,781,542
P1100613.JPG,1000,562,tlight,540,224,630,316
P1100614.JPG,1000,562,tlight,559,185,596,223
P1100615.JPG,1000,562,tlight,524,199,556,234
P1100616.JPG,1000,562,tlight,425,231,449,256
P1100617.JPG,1000,562,tlight,335,150,387,208
P1100618.JPG,1000,562,tlight,567,164,639,245
P1100619.JPG,1000,562,tlight,558,37,633,118
P1100620.JPG,1000,562,tlight,500,168,574,246
P1100621.JPG,1000,562,tlight,482,208,554,274
P1100622.JPG,1000,562,tlight,451,205,477,235
P1100623.JPG,1000,562,tlight,535,245,556,268
P1100624.JPG,1000,562,tlight,597,181,650,230
P1100628.JPG,1000,562,tlight,531,214,568,252
P1100629.JPG,1000,562,tlight,539,208,570,243
P1100631.JPG,1000,562,tlight,548,157,585,195
P1100632.JPG,1000,562,tlight,563,231,596,265
P1100633.JPG,1000,562,tlight,564,196,601,234
P1100634.JPG,1000,562,tlight,567,134,602,169
P1100635.JPG,1000,562,tlight,610,171,644,209
P1100636.JPG,1000,562,tlight,469,232,545,300
P1100640.JPG,1000,562,tlight,365,178,400,212
P1100642.JPG,1000,562,tlight,340,154,385,195
P1100644.JPG,1000,562,tlight,455,240,481,271
P1100645.JPG,1000,562,tlight,482,238,530,297
P1100646.JPG,1000,562,tlight,497,213,548,269
P1100647.JPG,1000,562,tlight,523,194,550,227
P1100648.JPG,1000,562,tlight,576,147,604,178
P1100649.JPG,1000,562,tlight,418,226,440,254
P1100651.JPG,1000,562,tlight,833,273,857,297
P1100652.JPG,1000,562,tlight,790,265,811,290
P1100655.JPG,1000,562,tlight,436,233,462,268
P1100656.JPG,1000,562,tlight,505,222,551,270
P1100657.JPG,1000,562,tlight,165,190,200,239
P1100658.JPG,1000,562,tlight,536,248,556,273
P1100660.JPG,1000,562,tlight,522,257,543,280
P1100660.JPG,1000,562,tlight,466,284,478,298
P1100663.JPG,1000,562,tlight,650,188,686,230
P1100663.JPG,1000,562,tlight,550,244,570,264
P1100664.JPG,1000,562,tlight,655,173,690,214
P1100666.JPG,1000,562,tlight,751,128,794,171
P1100666.JPG,1000,562,tlight,465,191,485,213
P1100667.JPG,1000,562,tlight,786,164,830,207
P1100667.JPG,1000,562,tlight,490,233,513,256
P1100668.JPG,1000,562,tlight,568,214,610,261
P1100669.JPG,1000,562,tlight,514,124,555,170
P1100670.JPG,1000,562,tlight,468,211,496,243
P1100672.JPG,1000,562,tlight,421,234,438,254
P1100673.JPG,1000,562,tlight,468,228,487,253
P1100674.JPG,1000,562,tlight,340,235,380,285
P1100675.JPG,1000,562,tlight,420,248,460,296
P1100678.JPG,1000,562,tlight,468,244,492,271
P1100681.JPG,1000,562,tlight,440,220,458,243
P1100682.JPG,1000,562,tlight,361,52,633,401
P1100685.JPG,1000,562,tlight,127,131,167,175
P1100685.JPG,1000,562,tlight,668,240,682,259
P1100686.JPG,1000,562,tlight,104,180,147,224
P1100686.JPG,1000,562,tlight,645,311,660,329
P1100687.JPG,1000,562,tlight,610,212,651,261
P1100689.JPG,1000,562,tlight,694,187,719,215
P1100690.JPG,1000,562,tlight,709,142,746,186
P1100691.JPG,1000,562,tlight,254,185,290,224
P1100692.JPG,1000,562,tlight,130,154,167,195
P1100693.JPG,1000,562,tlight,149,177,191,220
P1100695.JPG,1000,562,tlight,192,200,250,264
P1100697.JPG,1000,562,tlight,630,214,685,274
P1100700.JPG,1000,562,tlight,657,196,692,235
P1100701.JPG,1000,562,tlight,686,188,728,234
P1100704.JPG,1000,562,tlight,377,162,423,209
P1100704.JPG,1000,562,tlight,878,262,890,275
P1100706.JPG,1000,562,tlight,176,182,222,230
P1100706.JPG,1000,562,tlight,660,282,672,295
P1100707.JPG,1000,562,tlight,360,217,397,254
P1100707.JPG,1000,562,tlight,532,319,543,330
P1100709.JPG,1000,562,tlight,272,170,334,233
P1100709.JPG,1000,562,tlight,563,338,582,357
P1100710.JPG,1000,562,tlight,245,34,306,97
P1100710.JPG,1000,562,tlight,540,212,559,232
P1100711.JPG,1000,562,tlight,568,243,603,279
P1100713.JPG,1000,562,tlight,657,190,696,235
P1100714.JPG,1000,562,tlight,536,234,581,282
P1100715.JPG,1000,562,tlight,511,201,558,250
P1100716.JPG,1000,562,tlight,591,214,638,264
P1100718.JPG,1000,562,tlight,327,200,358,234
P1100719.JPG,1000,562,tlight,280,154,320,198
P1100720.JPG,1000,562,tlight,278,121,319,166
P1100724.JPG,1000,562,tlight,259,182,302,231
P1100726.JPG,1000,562,tlight,420,228,461,275
P1100729.JPG,1000,562,tlight,228,181,272,226
P1100730.JPG,1000,562,tlight,117,80,182,149
P1100733.JPG,1000,562,tlight,233,210,297,281
P1100734.JPG,1000,562,tlight,200,188,276,265
P1100735.JPG,1000,562,tlight,241,179,290,232
P1100736.JPG,1000,562,tlight,377,199,419,246
P1100737.JPG,1000,562,tlight,199,189,240,232
P1100738.JPG,1000,562,tlight,139,104,183,149
P1100739.JPG,1000,562,tlight,163,232,208,282
P1100740.JPG,1000,562,tlight,404,108,451,157
P1100741.JPG,1000,562,tlight,58,112,109,162
P1100742.JPG,1000,562,tlight,195,214,223,246
P1100743.JPG,1000,562,tlight,466,236,494,265
P1100744.JPG,1000,562,tlight,50,145,94,189
P1100745.JPG,1000,562,tlight,344,222,368,248
P1100746.JPG,1000,562,tlight,151,116,220,186
P1100747.JPG,1000,562,tlight,423,247,446,271
P1100748.JPG,1000,562,tlight,347,168,377,203
P1100749.JPG,1000,562,tlight,353,193,457,325
P1100750.JPG,1000,562,tlight,610,251,638,282
P1100750.JPG,1000,562,tlight,166,263,184,282
P1100751.JPG,1000,562,tlight,189,237,213,261
P1100751.JPG,1000,562,tlight,794,221,831,260
P1100752.JPG,1000,562,tlight,86,216,145,277
P1100753.JPG,1000,562,tlight,76,96,134,159
P1100755.JPG,1000,562,tlight,584,253,608,275
P1100756.JPG,1000,562,tlight,662,241,684,263
P1100757.JPG,1000,562,tlight,725,250,752,274
P1100758.JPG,1000,562,tlight,467,247,501,279
P1100760.JPG,1000,562,tlight,68,164,130,221
P1100760.JPG,1000,562,tlight,783,249,807,275
P1100761.JPG,1000,562,tlight,55,156,112,218
P1100761.JPG,1000,562,tlight,768,248,790,273
P1100762.JPG,1000,562,tlight,414,243,468,302
P1100763.JPG,1000,562,tlight,61,235,94,270
P1100766.JPG,1000,562,tlight,189,187,226,229
P1100766.JPG,1000,562,tlight,659,285,675,302
P1100767.JPG,1000,562,tlight,626,235,658,270
P1100768.JPG,1000,562,tlight,543,250,575,284
P1100769.JPG,1000,562,tlight,147,236,176,270
P1100770.JPG,1000,562,tlight,127,268,159,301
P1100771.JPG,1000,562,tlight,671,237,702,270
P1100772.JPG,1000,562,tlight,689,232,722,267
P1100773.JPG,1000,562,tlight,240,191,281,234
P1100774.JPG,1000,562,tlight,251,210,291,252
_MG_3604.JPG,996,664,tlight,498,245,525,275
_MG_3605.JPG,996,664,tlight,498,244,526,277
_MG_3606.JPG,996,664,tlight,490,213,513,244
_MG_3608.JPG,996,664,tlight,430,254,450,285
_MG_3609.JPG,996,664,tlight,500,264,523,287
_MG_3610.JPG,996,664,tlight,524,267,545,290
_MG_3611.JPG,996,664,tlight,245,215,265,245
_MG_3612.JPG,996,664,tlight,493,221,521,253
_MG_3613.JPG,996,664,tlight,485,248,518,287
_MG_3614.JPG,996,664,tlight,518,184,552,221
_MG_3615.JPG,996,664,tlight,518,150,576,208
_MG_3616.JPG,996,664,tlight,501,252,553,307
_MG_3617.JPG,996,664,tlight,476,294,506,327
_MG_3619.JPG,996,664,tlight,509,272,527,292
_MG_3621.JPG,996,664,tlight,422,286,447,320
_MG_3622.JPG,996,664,tlight,502,255,527,300
_MG_3624.JPG,996,664,tlight,217,270,232,300
_MG_3624.JPG,996,664,tlight,536,291,552,311
_MG_3625.JPG,996,664,tlight,489,258,505,287
_MG_3625.JPG,996,664,tlight,811,275,826,297
_MG_3626.JPG,996,664,tlight,178,216,196,252
_MG_3626.JPG,996,664,tlight,598,250,618,276
_MG_3627.JPG,996,664,tlight,427,219,455,260
_MG_3627.JPG,996,664,tlight,662,264,682,288
_MG_3628.JPG,996,664,tlight,318,222,345,264
_MG_3628.JPG,996,664,tlight,552,267,573,292
_MG_3629.JPG,996,664,tlight,503,170,567,245
_MG_3630.JPG,996,664,tlight,512,167,579,242
_MG_3630.JPG,996,664,tlight,369,252,406,292
_MG_3631.JPG,996,664,tlight,476,231,511,271
_MG_3631.JPG,996,664,tlight,623,144,684,219
_MG_3633.JPG,996,664,tlight,515,227,549,263
_MG_3634.JPG,996,664,tlight,480,238,541,309
_MG_3636.JPG,996,664,tlight,456,260,513,327
_MG_3637.JPG,996,664,tlight,462,218,516,286
_MG_3638.JPG,996,664,tlight,458,209,518,270
_MG_3639.JPG,996,664,tlight,515,282,554,327
_MG_3640.JPG,996,664,tlight,504,275,522,295
_MG_3641.JPG,996,664,tlight,474,211,525,306
_MG_3642.JPG,996,664,tlight,475,195,524,288
_MG_3644.JPG,996,664,tlight,451,240,544,345
_MG_3645.JPG,996,664,tlight,463,247,560,353
_MG_3647.JPG,996,664,tlight,478,233,518,278
_MG_3648.JPG,996,664,tlight,500,254,526,287
_MG_3649.JPG,996,664,tlight,552,243,602,313
_MG_3650.JPG,996,664,tlight,538,212,594,282
_MG_3651.JPG,996,664,tlight,528,208,581,266
_MG_3652.JPG,996,664,tlight,502,274,527,301
_MG_3656.JPG,996,664,tlight,469,200,509,253
_MG_3657.JPG,996,664,tlight,498,197,529,238
_MG_3659.JPG,996,664,tlight,451,222,473,247
_MG_3660.JPG,996,664,tlight,478,253,502,279
_MG_3661.JPG,996,664,tlight,491,202,546,264
_MG_3662.JPG,996,664,tlight,465,262,514,325
_MG_3663.JPG,996,664,tlight,442,219,506,290
_MG_3664.JPG,996,664,tlight,477,204,539,279
_MG_3665.JPG,996,664,tlight,440,231,477,277
_MG_3666.JPG,996,664,tlight,455,209,503,257
_MG_3667.JPG,996,664,tlight,513,281,566,336
_MG_3668.JPG,996,664,tlight,461,209,530,294
_MG_3671.JPG,996,664,tlight,471,227,536,315
_MG_3672.JPG,996,664,tlight,412,181,560,368
_MG_3673.JPG,996,664,tlight,454,215,537,318
_MG_3674.JPG,996,664,tlight,444,225,510,306
_MG_3676.JPG,996,664,tlight,551,154,606,236
_MG_3677.JPG,996,664,tlight,502,207,562,280
_MG_3678.JPG,996,664,tlight,500,227,558,300
_MG_3680.JPG,996,664,tlight,513,249,532,269
_MG_3682.JPG,996,664,tlight,489,254,509,273
_MG_3683.JPG,996,664,tlight,471,275,494,300
_MG_3684.JPG,996,664,tlight,500,282,518,302
_MG_3685.JPG,996,664,tlight,501,253,519,273
_MG_3686.JPG,996,664,tlight,478,270,499,298
_MG_3687.JPG,996,664,tlight,490,247,511,274
_MG_3688.JPG,996,664,tlight,468,222,526,293
_MG_3689.JPG,996,664,tlight,472,168,521,221
_MG_3690.JPG,996,664,tlight,772,87,823,144
_MG_3690.JPG,996,664,tlight,454,260,476,288
_MG_3691.JPG,996,664,tlight,509,207,562,268
_MG_3692.JPG,996,664,tlight,798,65,852,127
_MG_3692.JPG,996,664,tlight,477,237,500,263
_MG_3694.JPG,996,664,tlight,513,190,535,226
_MG_3695.JPG,996,664,tlight,479,274,500,314
_MG_3696.JPG,996,664,tlight,436,250,464,281
_MG_3697.JPG,996,664,tlight,456,231,485,264
_MG_3698.JPG,996,664,tlight,479,241,519,283
_MG_3699.JPG,996,664,tlight,464,266,485,288
_MG_3701.JPG,996,664,tlight,487,231,544,291
_MG_3702.JPG,996,664,tlight,474,264,504,299
_MG_3703.JPG,996,664,tlight,481,250,512,282
_MG_3705.JPG,996,664,tlight,512,207,543,242
_MG_3707.JPG,996,664,tlight,467,228,504,267
_MG_3708.JPG,996,664,tlight,451,233,485,274
_MG_3710.JPG,996,664,tlight,448,238,479,272
_MG_3711.JPG,996,664,tlight,493,236,525,270
_MG_3712.JPG,996,664,tlight,720,190,749,224
_MG_3718.JPG,996,664,tlight,468,258,495,290
_MG_3719.JPG,996,664,tlight,511,251,536,282
_MG_3720.JPG,996,664,tlight,1,159,21,192
_MG_3721.JPG,996,664,tlight,497,242,527,273
_MG_3722.JPG,996,664,tlight,499,253,530,287
_MG_3723.JPG,996,664,tlight,484,211,545,274
_MG_3725.JPG,996,664,tlight,484,227,519,276
_MG_3726.JPG,996,664,tlight,475,247,511,293
_MG_3727.JPG,996,664,tlight,509,239,530,263
_MG_3728.JPG,996,664,tlight,447,268,470,297
_MG_3729.JPG,996,664,tlight,509,247,532,276
_MG_3731.JPG,996,664,tlight,467,274,491,302
_MG_3732.JPG,996,664,tlight,476,267,499,295
_MG_3735.JPG,996,664,tlight,506,192,546,254
_MG_3736.JPG,996,664,tlight,497,186,527,234
_MG_3737.JPG,996,664,tlight,483,254,510,284
_MG_3738.JPG,996,664,tlight,505,252,532,282
_MG_3739.JPG,996,664,tlight,473,215,502,248
